disk_size_str,disk_size_gb,disk_type
100g,82,SSD
1200g,1115,SAS
144g,132,SAS
1600g,1490,SSD
200g,186,SSD
250g,206,SATA
2t,1862,NL-SAS
300g,265,SAS
320g,267,SATA
3t,2479,NL-SAS
400g,372,SSD
450g,408,SAS
480g,443,SSD
4t,3718,NL-SAS
500g,413,SATA
600g,546,SAS
6t,5483,NL-SAS
750g,620,SATA
800g,744,SSD
900g,836,SAS
1g,1,FCAL
