#11/15/2013 20:07:49
LABEL USV007
 menu label "USV007" 
 menu indent 2
 kernel mboot.c32
 append vmkboot.gz ks=cdrom:/KS/USV007.CFG --- vmkernel.gz --- sys.vgz --- cim.vgz --- ienviron.vgz --- install.vgz

LABEL USV008
 menu label "USV008" 
 menu indent 2
 kernel mboot.c32
 append vmkboot.gz ks=cdrom:/KS/USV008.CFG --- vmkernel.gz --- sys.vgz --- cim.vgz --- ienviron.vgz --- install.vgz

LABEL USV009
 menu label "USV009" 
 menu indent 2
 kernel mboot.c32
 append vmkboot.gz ks=cdrom:/KS/USV009.CFG --- vmkernel.gz --- sys.vgz --- cim.vgz --- ienviron.vgz --- install.vgz

LABEL USV010
 menu label "USV010" 
 menu indent 2
 kernel mboot.c32
 append vmkboot.gz ks=cdrom:/KS/USV010.CFG --- vmkernel.gz --- sys.vgz --- cim.vgz --- ienviron.vgz --- install.vgz

LABEL USV011
 menu label "USV011" 
 menu indent 2
 kernel mboot.c32
 append vmkboot.gz ks=cdrom:/KS/USV011.CFG --- vmkernel.gz --- sys.vgz --- cim.vgz --- ienviron.vgz --- install.vgz

LABEL USV012
 menu label "USV012" 
 menu indent 2
 kernel mboot.c32
 append vmkboot.gz ks=cdrom:/KS/USV012.CFG --- vmkernel.gz --- sys.vgz --- cim.vgz --- ienviron.vgz --- install.vgz

LABEL USV013
 menu label "USV013" 
 menu indent 2
 kernel mboot.c32
 append vmkboot.gz ks=cdrom:/KS/USV013.CFG --- vmkernel.gz --- sys.vgz --- cim.vgz --- ienviron.vgz --- install.vgz

LABEL USV014
 menu label "USV014" 
 menu indent 2
 kernel mboot.c32
 append vmkboot.gz ks=cdrom:/KS/USV014.CFG --- vmkernel.gz --- sys.vgz --- cim.vgz --- ienviron.vgz --- install.vgz

LABEL USV015
 menu label "USV015" 
 menu indent 2
 kernel mboot.c32
 append vmkboot.gz ks=cdrom:/KS/USV015.CFG --- vmkernel.gz --- sys.vgz --- cim.vgz --- ienviron.vgz --- install.vgz

LABEL USV016
 menu label "USV016" 
 menu indent 2
 kernel mboot.c32
 append vmkboot.gz ks=cdrom:/KS/USV016.CFG --- vmkernel.gz --- sys.vgz --- cim.vgz --- ienviron.vgz --- install.vgz

LABEL USV017
 menu label "USV017" 
 menu indent 2
 kernel mboot.c32
 append vmkboot.gz ks=cdrom:/KS/USV017.CFG --- vmkernel.gz --- sys.vgz --- cim.vgz --- ienviron.vgz --- install.vgz

LABEL USV018
 menu label "USV018" 
 menu indent 2
 kernel mboot.c32
 append vmkboot.gz ks=cdrom:/KS/USV018.CFG --- vmkernel.gz --- sys.vgz --- cim.vgz --- ienviron.vgz --- install.vgz

LABEL USV019
 menu label "USV019" 
 menu indent 2
 kernel mboot.c32
 append vmkboot.gz ks=cdrom:/KS/USV019.CFG --- vmkernel.gz --- sys.vgz --- cim.vgz --- ienviron.vgz --- install.vgz

LABEL USV020
 menu label "USV020" 
 menu indent 2
 kernel mboot.c32
 append vmkboot.gz ks=cdrom:/KS/USV020.CFG --- vmkernel.gz --- sys.vgz --- cim.vgz --- ienviron.vgz --- install.vgz

LABEL USV021
 menu label "USV021" 
 menu indent 2
 kernel mboot.c32
 append vmkboot.gz ks=cdrom:/KS/USV021.CFG --- vmkernel.gz --- sys.vgz --- cim.vgz --- ienviron.vgz --- install.vgz

LABEL USV022
 menu label "USV022" 
 menu indent 2
 kernel mboot.c32
 append vmkboot.gz ks=cdrom:/KS/USV022.CFG --- vmkernel.gz --- sys.vgz --- cim.vgz --- ienviron.vgz --- install.vgz

LABEL USV029
 menu label "USV029" 
 menu indent 2
 kernel mboot.c32
 append vmkboot.gz ks=cdrom:/KS/USV029.CFG --- vmkernel.gz --- sys.vgz --- cim.vgz --- ienviron.vgz --- install.vgz

LABEL USV030
 menu label "USV030" 
 menu indent 2
 kernel mboot.c32
 append vmkboot.gz ks=cdrom:/KS/USV030.CFG --- vmkernel.gz --- sys.vgz --- cim.vgz --- ienviron.vgz --- install.vgz

LABEL USV032
 menu label "USV032" 
 menu indent 2
 kernel mboot.c32
 append vmkboot.gz ks=cdrom:/KS/USV032.CFG --- vmkernel.gz --- sys.vgz --- cim.vgz --- ienviron.vgz --- install.vgz

LABEL USV037
 menu label "USV037" 
 menu indent 2
 kernel mboot.c32
 append vmkboot.gz ks=cdrom:/KS/USV037.CFG --- vmkernel.gz --- sys.vgz --- cim.vgz --- ienviron.vgz --- install.vgz

LABEL USV038
 menu label "USV038" 
 menu indent 2
 kernel mboot.c32
 append vmkboot.gz ks=cdrom:/KS/USV038.CFG --- vmkernel.gz --- sys.vgz --- cim.vgz --- ienviron.vgz --- install.vgz

LABEL USV053
 menu label "USV053" 
 menu indent 2
 kernel mboot.c32
 append vmkboot.gz ks=cdrom:/KS/USV053.CFG --- vmkernel.gz --- sys.vgz --- cim.vgz --- ienviron.vgz --- install.vgz

LABEL USV054
 menu label "USV054" 
 menu indent 2
 kernel mboot.c32
 append vmkboot.gz ks=cdrom:/KS/USV054.CFG --- vmkernel.gz --- sys.vgz --- cim.vgz --- ienviron.vgz --- install.vgz

