build_id,customer_name_key,esxi_cluster_name,esxi_host_model
1,DatalinkLabs,mspclu01,B200 M3
2,DatalinkLabs,mspclu02,B230 M2
3,Datalink,eppclu02,C200 M1
4,Revlon,rpaux-clu,C200 M1
5,dtlk_e2,e2vmw1,B200 M3
6,dtlk_vpod,e13vmw1,Nested
7,DatalinkLabs,e4vmw1,C240 M3
